<?xml version="1.0" encoding="UTF-8" standalone="no"?>
<!DOCTYPE svg PUBLIC "-//W3C//DTD SVG 1.1//EN"
 "http://www.w3.org/Graphics/SVG/1.1/DTD/svg11.dtd">
<!-- Generated by graphviz version 2.43.0 (0)
 -->
<!-- Title: %3 Pages: 1 -->
<svg width="748pt" height="709pt"
 viewBox="0.00 0.00 748.00 709.00" xmlns="http://www.w3.org/2000/svg" xmlns:xlink="http://www.w3.org/1999/xlink">
<g id="graph0" class="graph" transform="scale(1 1) rotate(0) translate(4 705)">
<title>%3</title>
<polygon fill="white" stroke="transparent" points="-4,4 -4,-705 744,-705 744,4 -4,4"/>
<!-- 1 -->
<g id="node1" class="node">
<title>1</title>
<ellipse fill="none" stroke="black" cx="202" cy="-683" rx="27" ry="18"/>
<text text-anchor="middle" x="202" y="-679.3" font-family="Times,serif" font-size="14.00">1,I</text>
</g>
<!-- 2 -->
<g id="node2" class="node">
<title>2</title>
<ellipse fill="none" stroke="black" cx="125" cy="-683" rx="27" ry="18"/>
<text text-anchor="middle" x="125" y="-679.3" font-family="Times,serif" font-size="14.00">2,I</text>
</g>
<!-- 3 -->
<g id="node3" class="node">
<title>3</title>
<ellipse fill="none" stroke="black" cx="48" cy="-683" rx="27" ry="18"/>
<text text-anchor="middle" x="48" y="-679.3" font-family="Times,serif" font-size="14.00">3,I</text>
</g>
<!-- 4 -->
<g id="node4" class="node">
<title>4</title>
<ellipse fill="none" stroke="black" cx="48" cy="-620" rx="27" ry="18"/>
<text text-anchor="middle" x="48" y="-616.3" font-family="Times,serif" font-size="14.00">3,M</text>
</g>
<!-- 5 -->
<g id="node5" class="node">
<title>5</title>
<ellipse fill="none" stroke="black" cx="48" cy="-368" rx="27" ry="18"/>
<text text-anchor="middle" x="48" y="-364.3" font-family="Times,serif" font-size="14.00">5,I</text>
</g>
<!-- 6 -->
<g id="node6" class="node">
<title>6</title>
<ellipse fill="none" stroke="black" cx="48" cy="-242" rx="27" ry="18"/>
<text text-anchor="middle" x="48" y="-238.3" font-family="Times,serif" font-size="14.00">6,I</text>
</g>
<!-- 7 -->
<g id="node7" class="node">
<title>7</title>
<ellipse fill="none" stroke="black" cx="629" cy="-25" rx="27" ry="18"/>
<text text-anchor="middle" x="629" y="-21.3" font-family="Times,serif" font-size="14.00">7,I</text>
</g>
<!-- 8 -->
<g id="node8" class="node">
<title>8</title>
<ellipse fill="none" stroke="black" cx="706" cy="-25" rx="27" ry="18"/>
<text text-anchor="middle" x="706" y="-21.3" font-family="Times,serif" font-size="14.00">6,M</text>
</g>
<!-- 9 -->
<g id="node9" class="node">
<title>9</title>
<ellipse fill="none" stroke="black" cx="34" cy="-305" rx="27" ry="18"/>
<text text-anchor="middle" x="34" y="-301.3" font-family="Times,serif" font-size="14.00">2,M</text>
</g>
<!-- 10 -->
<g id="node10" class="node">
<title>10</title>
<ellipse fill="none" stroke="black" cx="370" cy="-18" rx="27" ry="18"/>
<text text-anchor="middle" x="370" y="-14.3" font-family="Times,serif" font-size="14.00">5,M</text>
</g>
<!-- 11 -->
<g id="node11" class="node">
<title>11</title>
<ellipse fill="none" stroke="black" cx="447" cy="-18" rx="27" ry="18"/>
<text text-anchor="middle" x="447" y="-14.3" font-family="Times,serif" font-size="14.00">11,I</text>
</g>
<!-- 12 -->
<g id="node12" class="node">
<title>12</title>
<ellipse fill="none" stroke="black" cx="548.55" cy="-186" rx="30.59" ry="18"/>
<text text-anchor="middle" x="548.55" y="-182.3" font-family="Times,serif" font-size="14.00">11,M</text>
</g>
<!-- 13 -->
<g id="node13" class="node">
<title>13</title>
<ellipse fill="none" stroke="black" cx="713" cy="-312" rx="27" ry="18"/>
<text text-anchor="middle" x="713" y="-308.3" font-family="Times,serif" font-size="14.00">13,I</text>
</g>
<!-- 14 -->
<g id="node14" class="node">
<title>14</title>
<ellipse fill="none" stroke="black" cx="713" cy="-459" rx="27" ry="18"/>
<text text-anchor="middle" x="713" y="-455.3" font-family="Times,serif" font-size="14.00">14,I</text>
</g>
<!-- 15 -->
<g id="node15" class="node">
<title>15</title>
<ellipse fill="none" stroke="black" cx="97.95" cy="-557" rx="27.9" ry="18"/>
<text text-anchor="middle" x="97.95" y="-553.3" font-family="Times,serif" font-size="14.00">3,R1</text>
</g>
<!-- 16 -->
<g id="node16" class="node">
<title>16</title>
<ellipse fill="none" stroke="black" cx="390.1" cy="-459" rx="27" ry="18"/>
<text text-anchor="middle" x="390.1" y="-455.3" font-family="Times,serif" font-size="14.00">16,I</text>
</g>
<!-- 17 -->
<g id="node17" class="node">
<title>17</title>
<ellipse fill="none" stroke="black" cx="324.55" cy="-459" rx="30.59" ry="18"/>
<text text-anchor="middle" x="324.55" y="-455.3" font-family="Times,serif" font-size="14.00">16,M</text>
</g>
<!-- 16&#45;&#45;17 -->
<g id="edge5" class="edge">
<title>16&#45;&#45;17</title>
<path fill="none" stroke="gray" d="M363.06,-459C360.52,-459 357.93,-459 355.36,-459"/>
</g>
<!-- 18 -->
<g id="node18" class="node">
<title>18</title>
<ellipse fill="none" stroke="black" cx="27" cy="-557" rx="27" ry="18"/>
<text text-anchor="middle" x="27" y="-553.3" font-family="Times,serif" font-size="14.00">18,I</text>
</g>
<!-- 19 -->
<g id="node19" class="node">
<title>19</title>
<ellipse fill="none" stroke="black" cx="193.5" cy="-305" rx="32.49" ry="18"/>
<text text-anchor="middle" x="193.5" y="-301.3" font-family="Times,serif" font-size="14.00">11,R1</text>
</g>
<!-- 20 -->
<g id="node20" class="node">
<title>20</title>
<ellipse fill="none" stroke="black" cx="569.55" cy="-396" rx="30.59" ry="18"/>
<text text-anchor="middle" x="569.55" y="-392.3" font-family="Times,serif" font-size="14.00">13,M</text>
</g>
<!-- 21 -->
<g id="node21" class="node">
<title>21</title>
<ellipse fill="none" stroke="black" cx="263.5" cy="-557" rx="32.49" ry="18"/>
<text text-anchor="middle" x="263.5" y="-553.3" font-family="Times,serif" font-size="14.00">13,R3</text>
</g>
<!-- 22 -->
<g id="node22" class="node">
<title>22</title>
<ellipse fill="none" stroke="black" cx="177.55" cy="-557" rx="30.59" ry="18"/>
<text text-anchor="middle" x="177.55" y="-553.3" font-family="Times,serif" font-size="14.00">18,M</text>
</g>
<!-- 23 -->
<g id="node23" class="node">
<title>23</title>
<ellipse fill="none" stroke="black" cx="321.45" cy="-396" rx="34.39" ry="18"/>
<text text-anchor="middle" x="321.45" y="-392.3" font-family="Times,serif" font-size="14.00">14,M3</text>
</g>
<!-- 24 -->
<g id="node24" class="node">
<title>24</title>
<ellipse fill="none" stroke="black" cx="375.5" cy="-144" rx="32.49" ry="18"/>
<text text-anchor="middle" x="375.5" y="-140.3" font-family="Times,serif" font-size="14.00">14,R2</text>
</g>
<!-- 25 -->
<g id="node25" class="node">
<title>25</title>
<ellipse fill="none" stroke="black" cx="466.5" cy="-144" rx="32.49" ry="18"/>
<text text-anchor="middle" x="466.5" y="-140.3" font-family="Times,serif" font-size="14.00">18,R3</text>
</g>
<!-- 26 -->
<g id="node26" class="node">
<title>26</title>
<ellipse fill="none" stroke="black" cx="90.95" cy="-81" rx="27.9" ry="18"/>
<text text-anchor="middle" x="90.95" y="-77.3" font-family="Times,serif" font-size="14.00">5,R2</text>
</g>
<!-- 27 -->
<g id="node27" class="node">
<title>27</title>
<ellipse fill="none" stroke="black" cx="27" cy="-18" rx="27" ry="18"/>
<text text-anchor="middle" x="27" y="-14.3" font-family="Times,serif" font-size="14.00">27,I</text>
</g>
<!-- 28 -->
<g id="node28" class="node">
<title>28</title>
<ellipse fill="none" stroke="black" cx="156.55" cy="-494" rx="30.59" ry="18"/>
<text text-anchor="middle" x="156.55" y="-490.3" font-family="Times,serif" font-size="14.00">5,M3</text>
</g>
<!-- 29 -->
<g id="node29" class="node">
<title>29</title>
<ellipse fill="none" stroke="black" cx="373.45" cy="-333" rx="34.39" ry="18"/>
<text text-anchor="middle" x="373.45" y="-329.3" font-family="Times,serif" font-size="14.00">16,M1</text>
</g>
<!-- 30 -->
<g id="node30" class="node">
<title>30</title>
<ellipse fill="none" stroke="black" cx="298.5" cy="-333" rx="32.49" ry="18"/>
<text text-anchor="middle" x="298.5" y="-329.3" font-family="Times,serif" font-size="14.00">16,R3</text>
</g>
<!-- 29&#45;&#45;30 -->
<g id="edge3" class="edge">
<title>29&#45;&#45;30</title>
<path fill="none" stroke="gray" d="M338.61,-333C336.16,-333 333.7,-333 331.26,-333"/>
</g>
<!-- 31 -->
<g id="node31" class="node">
<title>31</title>
<ellipse fill="none" stroke="black" cx="286.45" cy="-270" rx="34.39" ry="18"/>
<text text-anchor="middle" x="286.45" y="-266.3" font-family="Times,serif" font-size="14.00">18,M1</text>
</g>
<!-- 32 -->
<g id="node32" class="node">
<title>32</title>
<ellipse fill="none" stroke="black" cx="244.45" cy="-494" rx="34.39" ry="18"/>
<text text-anchor="middle" x="244.45" y="-490.3" font-family="Times,serif" font-size="14.00">11,M2</text>
</g>
<!-- 33 -->
<g id="node33" class="node">
<title>33</title>
<ellipse fill="none" stroke="black" cx="230.45" cy="-431" rx="34.39" ry="18"/>
<text text-anchor="middle" x="230.45" y="-427.3" font-family="Times,serif" font-size="14.00">13,M1</text>
</g>
<!-- 34 -->
<g id="node34" class="node">
<title>34</title>
<ellipse fill="none" stroke="black" cx="377.45" cy="-207" rx="34.39" ry="18"/>
<text text-anchor="middle" x="377.45" y="-203.3" font-family="Times,serif" font-size="14.00">11,M1</text>
</g>
<!-- 35 -->
<g id="node35" class="node">
<title>35</title>
<ellipse fill="none" stroke="black" cx="158.5" cy="-144" rx="32.49" ry="18"/>
<text text-anchor="middle" x="158.5" y="-140.3" font-family="Times,serif" font-size="14.00">11,R3</text>
</g>
<!-- 36 -->
<g id="node36" class="node">
<title>36</title>
<ellipse fill="none" stroke="black" cx="240.55" cy="-144" rx="30.59" ry="18"/>
<text text-anchor="middle" x="240.55" y="-140.3" font-family="Times,serif" font-size="14.00">3,M2</text>
</g>
<!-- 37 -->
<g id="node37" class="node">
<title>37</title>
<ellipse fill="none" stroke="black" cx="468.45" cy="-207" rx="34.39" ry="18"/>
<text text-anchor="middle" x="468.45" y="-203.3" font-family="Times,serif" font-size="14.00">14,M1</text>
</g>
<!-- 38 -->
<g id="node38" class="node">
<title>38</title>
<ellipse fill="none" stroke="black" cx="597.55" cy="-585" rx="30.59" ry="18"/>
<text text-anchor="middle" x="597.55" y="-581.3" font-family="Times,serif" font-size="14.00">3,M1</text>
</g>
<!-- 39 -->
<g id="node39" class="node">
<title>39</title>
<ellipse fill="none" stroke="black" cx="520.55" cy="-585" rx="30.59" ry="18"/>
<text text-anchor="middle" x="520.55" y="-581.3" font-family="Times,serif" font-size="14.00">2,M1</text>
</g>
<!-- 40 -->
<g id="node40" class="node">
<title>40</title>
<ellipse fill="none" stroke="black" cx="167.95" cy="-81" rx="27.9" ry="18"/>
<text text-anchor="middle" x="167.95" y="-77.3" font-family="Times,serif" font-size="14.00">1,R3</text>
</g>
<!-- 41 -->
<g id="node41" class="node">
<title>41</title>
<ellipse fill="none" stroke="black" cx="244.95" cy="-81" rx="27.9" ry="18"/>
<text text-anchor="middle" x="244.95" y="-77.3" font-family="Times,serif" font-size="14.00">6,R3</text>
</g>
<!-- 42 -->
<g id="node42" class="node">
<title>42</title>
<ellipse fill="none" stroke="black" cx="443.55" cy="-585" rx="30.59" ry="18"/>
<text text-anchor="middle" x="443.55" y="-581.3" font-family="Times,serif" font-size="14.00">6,M1</text>
</g>
<!-- 43 -->
<g id="node43" class="node">
<title>43</title>
<ellipse fill="none" stroke="black" cx="366.55" cy="-585" rx="30.59" ry="18"/>
<text text-anchor="middle" x="366.55" y="-581.3" font-family="Times,serif" font-size="14.00">5,M1</text>
</g>
<!-- 44 -->
<g id="node44" class="node">
<title>44</title>
<ellipse fill="none" stroke="black" cx="657.95" cy="-648" rx="27.9" ry="18"/>
<text text-anchor="middle" x="657.95" y="-644.3" font-family="Times,serif" font-size="14.00">7,R1</text>
</g>
<!-- 45 -->
<g id="node45" class="node">
<title>45</title>
<ellipse fill="none" stroke="black" cx="580.95" cy="-648" rx="27.9" ry="18"/>
<text text-anchor="middle" x="580.95" y="-644.3" font-family="Times,serif" font-size="14.00">3,R3</text>
</g>
<!-- 46 -->
<g id="node46" class="node">
<title>46</title>
<ellipse fill="none" stroke="black" cx="503.95" cy="-648" rx="27.9" ry="18"/>
<text text-anchor="middle" x="503.95" y="-644.3" font-family="Times,serif" font-size="14.00">5,R3</text>
</g>
<!-- 47 -->
<g id="node47" class="node">
<title>47</title>
<ellipse fill="none" stroke="black" cx="426.95" cy="-648" rx="27.9" ry="18"/>
<text text-anchor="middle" x="426.95" y="-644.3" font-family="Times,serif" font-size="14.00">2,R3</text>
</g>
<!-- 48 -->
<g id="node48" class="node">
<title>48</title>
<ellipse fill="none" stroke="black" cx="142.55" cy="-431" rx="30.59" ry="18"/>
<text text-anchor="middle" x="142.55" y="-427.3" font-family="Times,serif" font-size="14.00">14,M</text>
</g>
<!-- 49 -->
<g id="node49" class="node">
<title>49</title>
<ellipse fill="none" stroke="black" cx="223.45" cy="-207" rx="34.39" ry="18"/>
<text text-anchor="middle" x="223.45" y="-203.3" font-family="Times,serif" font-size="14.00">18,M2</text>
</g>
<!-- 50 -->
<g id="node50" class="node">
<title>50</title>
<ellipse fill="none" stroke="black" cx="541" cy="-459" rx="27" ry="18"/>
<text text-anchor="middle" x="541" y="-455.3" font-family="Times,serif" font-size="14.00">50,I</text>
</g>
<!-- 52 -->
<g id="node52" class="node">
<title>52</title>
<ellipse fill="none" stroke="black" cx="473.5" cy="-459" rx="32.49" ry="18"/>
<text text-anchor="middle" x="473.5" y="-455.3" font-family="Times,serif" font-size="14.00">50,R2</text>
</g>
<!-- 50&#45;&#45;52 -->
<g id="edge4" class="edge">
<title>50&#45;&#45;52</title>
<path fill="none" stroke="gray" d="M513.93,-459C511.44,-459 508.89,-459 506.36,-459"/>
</g>
<!-- 51 -->
<g id="node51" class="node">
<title>51</title>
<ellipse fill="none" stroke="black" cx="557.5" cy="-123" rx="32.49" ry="18"/>
<text text-anchor="middle" x="557.5" y="-119.3" font-family="Times,serif" font-size="14.00">13,R1</text>
</g>
<!-- 53 -->
<g id="node53" class="node">
<title>53</title>
<ellipse fill="none" stroke="black" cx="130.5" cy="-242" rx="32.49" ry="18"/>
<text text-anchor="middle" x="130.5" y="-238.3" font-family="Times,serif" font-size="14.00">18,R2</text>
</g>
<!-- 54 -->
<g id="node54" class="node">
<title>54</title>
<ellipse fill="none" stroke="black" cx="627.5" cy="-333" rx="32.49" ry="18"/>
<text text-anchor="middle" x="627.5" y="-329.3" font-family="Times,serif" font-size="14.00">18,R1</text>
</g>
<!-- 55 -->
<g id="node55" class="node">
<title>55</title>
<ellipse fill="none" stroke="black" cx="627.5" cy="-459" rx="32.49" ry="18"/>
<text text-anchor="middle" x="627.5" y="-455.3" font-family="Times,serif" font-size="14.00">14,R3</text>
</g>
<!-- 56 -->
<g id="node56" class="node">
<title>56</title>
<ellipse fill="none" stroke="black" cx="76.95" cy="-494" rx="27.9" ry="18"/>
<text text-anchor="middle" x="76.95" y="-490.3" font-family="Times,serif" font-size="14.00">3,R2</text>
</g>
<!-- 57 -->
<g id="node57" class="node">
<title>57</title>
<ellipse fill="none" stroke="black" cx="618.55" cy="-522" rx="30.59" ry="18"/>
<text text-anchor="middle" x="618.55" y="-518.3" font-family="Times,serif" font-size="14.00">6,M3</text>
</g>
<!-- 58 -->
<g id="node58" class="node">
<title>58</title>
<ellipse fill="none" stroke="black" cx="634.5" cy="-186" rx="32.49" ry="18"/>
<text text-anchor="middle" x="634.5" y="-182.3" font-family="Times,serif" font-size="14.00">14,R1</text>
</g>
<!-- 59 -->
<g id="node59" class="node">
<title>59</title>
<ellipse fill="none" stroke="black" cx="485.45" cy="-396" rx="34.39" ry="18"/>
<text text-anchor="middle" x="485.45" y="-392.3" font-family="Times,serif" font-size="14.00">16,M2</text>
</g>
<!-- 78 -->
<g id="node78" class="node">
<title>78</title>
<ellipse fill="none" stroke="black" cx="410.5" cy="-396" rx="32.49" ry="18"/>
<text text-anchor="middle" x="410.5" y="-392.3" font-family="Times,serif" font-size="14.00">16,R2</text>
</g>
<!-- 59&#45;&#45;78 -->
<g id="edge6" class="edge">
<title>59&#45;&#45;78</title>
<path fill="none" stroke="gray" d="M450.61,-396C448.16,-396 445.7,-396 443.26,-396"/>
</g>
<!-- 60 -->
<g id="node60" class="node">
<title>60</title>
<ellipse fill="none" stroke="black" cx="545.95" cy="-60" rx="27.9" ry="18"/>
<text text-anchor="middle" x="545.95" y="-56.3" font-family="Times,serif" font-size="14.00">6,R1</text>
</g>
<!-- 61 -->
<g id="node61" class="node">
<title>61</title>
<ellipse fill="none" stroke="black" cx="634.5" cy="-249" rx="32.49" ry="18"/>
<text text-anchor="middle" x="634.5" y="-245.3" font-family="Times,serif" font-size="14.00">27,R2</text>
</g>
<!-- 62 -->
<g id="node62" class="node">
<title>62</title>
<ellipse fill="none" stroke="black" cx="671.95" cy="-585" rx="27.9" ry="18"/>
<text text-anchor="middle" x="671.95" y="-581.3" font-family="Times,serif" font-size="14.00">2,R2</text>
</g>
<!-- 63 -->
<g id="node63" class="node">
<title>63</title>
<ellipse fill="none" stroke="black" cx="121.55" cy="-368" rx="30.59" ry="18"/>
<text text-anchor="middle" x="121.55" y="-364.3" font-family="Times,serif" font-size="14.00">2,M3</text>
</g>
<!-- 64 -->
<g id="node64" class="node">
<title>64</title>
<ellipse fill="none" stroke="black" cx="289.55" cy="-620" rx="30.59" ry="18"/>
<text text-anchor="middle" x="289.55" y="-616.3" font-family="Times,serif" font-size="14.00">6,M2</text>
</g>
<!-- 65 -->
<g id="node65" class="node">
<title>65</title>
<ellipse fill="none" stroke="black" cx="69.95" cy="-179" rx="27.9" ry="18"/>
<text text-anchor="middle" x="69.95" y="-175.3" font-family="Times,serif" font-size="14.00">1,R2</text>
</g>
<!-- 66 -->
<g id="node66" class="node">
<title>66</title>
<ellipse fill="none" stroke="black" cx="62.95" cy="-431" rx="27.9" ry="18"/>
<text text-anchor="middle" x="62.95" y="-427.3" font-family="Times,serif" font-size="14.00">1,R1</text>
</g>
<!-- 67 -->
<g id="node67" class="node">
<title>67</title>
<ellipse fill="none" stroke="black" cx="207.5" cy="-620" rx="32.49" ry="18"/>
<text text-anchor="middle" x="207.5" y="-616.3" font-family="Times,serif" font-size="14.00">11,R2</text>
</g>
<!-- 68 -->
<g id="node68" class="node">
<title>68</title>
<ellipse fill="none" stroke="black" cx="538.45" cy="-522" rx="34.39" ry="18"/>
<text text-anchor="middle" x="538.45" y="-518.3" font-family="Times,serif" font-size="14.00">11,M3</text>
</g>
<!-- 69 -->
<g id="node69" class="node">
<title>69</title>
<ellipse fill="none" stroke="black" cx="447.45" cy="-522" rx="34.39" ry="18"/>
<text text-anchor="middle" x="447.45" y="-518.3" font-family="Times,serif" font-size="14.00">14,M2</text>
</g>
<!-- 70 -->
<g id="node70" class="node">
<title>70</title>
<ellipse fill="none" stroke="black" cx="692.95" cy="-522" rx="27.9" ry="18"/>
<text text-anchor="middle" x="692.95" y="-518.3" font-family="Times,serif" font-size="14.00">6,R2</text>
</g>
<!-- 71 -->
<g id="node71" class="node">
<title>71</title>
<ellipse fill="none" stroke="black" cx="121.55" cy="-620" rx="30.59" ry="18"/>
<text text-anchor="middle" x="121.55" y="-616.3" font-family="Times,serif" font-size="14.00">3,M3</text>
</g>
<!-- 72 -->
<g id="node72" class="node">
<title>72</title>
<ellipse fill="none" stroke="black" cx="452.4" cy="-270" rx="32.49" ry="18"/>
<text text-anchor="middle" x="452.4" y="-266.3" font-family="Times,serif" font-size="14.00">16,R1</text>
</g>
<!-- 84 -->
<g id="node84" class="node">
<title>84</title>
<ellipse fill="none" stroke="black" cx="377.45" cy="-270" rx="34.39" ry="18"/>
<text text-anchor="middle" x="377.45" y="-266.3" font-family="Times,serif" font-size="14.00">16,M3</text>
</g>
<!-- 72&#45;&#45;84 -->
<g id="edge1" class="edge">
<title>72&#45;&#45;84</title>
<path fill="none" stroke="gray" d="M419.74,-270C417.22,-270 414.66,-270 412.13,-270"/>
</g>
<!-- 73 -->
<g id="node73" class="node">
<title>73</title>
<ellipse fill="none" stroke="black" cx="356.45" cy="-522" rx="34.39" ry="18"/>
<text text-anchor="middle" x="356.45" y="-518.3" font-family="Times,serif" font-size="14.00">13,M2</text>
</g>
<!-- 74 -->
<g id="node74" class="node">
<title>74</title>
<ellipse fill="none" stroke="black" cx="539.5" cy="-333" rx="32.49" ry="18"/>
<text text-anchor="middle" x="539.5" y="-329.3" font-family="Times,serif" font-size="14.00">50,R3</text>
</g>
<!-- 76 -->
<g id="node76" class="node">
<title>76</title>
<ellipse fill="none" stroke="black" cx="466.5" cy="-333" rx="32.49" ry="18"/>
<text text-anchor="middle" x="466.5" y="-329.3" font-family="Times,serif" font-size="14.00">50,R1</text>
</g>
<!-- 74&#45;&#45;76 -->
<g id="edge2" class="edge">
<title>74&#45;&#45;76</title>
<path fill="none" stroke="gray" d="M506.84,-333C504.26,-333 501.65,-333 499.07,-333"/>
</g>
<!-- 75 -->
<g id="node75" class="node">
<title>75</title>
<ellipse fill="none" stroke="black" cx="545.45" cy="-270" rx="34.39" ry="18"/>
<text text-anchor="middle" x="545.45" y="-266.3" font-family="Times,serif" font-size="14.00">18,M3</text>
</g>
<!-- 77 -->
<g id="node77" class="node">
<title>77</title>
<ellipse fill="none" stroke="black" cx="349.95" cy="-683" rx="27.9" ry="18"/>
<text text-anchor="middle" x="349.95" y="-679.3" font-family="Times,serif" font-size="14.00">2,R1</text>
</g>
<!-- 79 -->
<g id="node79" class="node">
<title>79</title>
<ellipse fill="none" stroke="black" cx="272.95" cy="-683" rx="27.9" ry="18"/>
<text text-anchor="middle" x="272.95" y="-679.3" font-family="Times,serif" font-size="14.00">5,R1</text>
</g>
<!-- 80 -->
<g id="node80" class="node">
<title>80</title>
<ellipse fill="none" stroke="black" cx="648.5" cy="-88" rx="32.49" ry="18"/>
<text text-anchor="middle" x="648.5" y="-84.3" font-family="Times,serif" font-size="14.00">13,R2</text>
</g>
<!-- 81 -->
<g id="node81" class="node">
<title>81</title>
<ellipse fill="none" stroke="black" cx="107.55" cy="-305" rx="30.59" ry="18"/>
<text text-anchor="middle" x="107.55" y="-301.3" font-family="Times,serif" font-size="14.00">5,M2</text>
</g>
<!-- 82 -->
<g id="node82" class="node">
<title>82</title>
<ellipse fill="none" stroke="black" cx="209.45" cy="-368" rx="34.39" ry="18"/>
<text text-anchor="middle" x="209.45" y="-364.3" font-family="Times,serif" font-size="14.00">13,M3</text>
</g>
<!-- 83 -->
<g id="node83" class="node">
<title>83</title>
<ellipse fill="none" stroke="black" cx="646.55" cy="-396" rx="30.59" ry="18"/>
<text text-anchor="middle" x="646.55" y="-392.3" font-family="Times,serif" font-size="14.00">2,M2</text>
</g>
<!-- 85 -->
<g id="node85" class="node">
<title>85</title>
<ellipse fill="none" stroke="black" cx="375.5" cy="-81" rx="32.49" ry="18"/>
<text text-anchor="middle" x="375.5" y="-77.3" font-family="Times,serif" font-size="14.00">27,R1</text>
</g>
<!-- 86 -->
<g id="node86" class="node">
<title>86</title>
<ellipse fill="none" stroke="black" cx="466.5" cy="-81" rx="32.49" ry="18"/>
<text text-anchor="middle" x="466.5" y="-77.3" font-family="Times,serif" font-size="14.00">27,R3</text>
</g>
</g>
</svg>
